{
    "__class_name__":"Core\\System\\Module",
    "filePath":"E:\/workspace\/HazoPortal\\modules\/editor\\artigo.json",
    "status":"O",
    "mode":"EDITOR",
    "modeDescription":null,
    "description":"Artigo",
    "module":"artigo",
    "submodules":{
        "index":{
            "__class_name__":"Core\\System\\Submodule",
            "module":"artigo",
            "submodule":"index",
            "description":"Artigos",
            "action":"S",
            "status":"O",
            "showMenu":"Y",
            "grantRequire":"Y",
            "helpers":null
        },
        "cadastro":{
            "__class_name__":"Core\\System\\Submodule",
            "module":"artigo",
            "submodule":"cadastro",
            "description":"Cadastro de P\u00e1gina",
            "action":"IU",
            "status":"O",
            "showMenu":"N",
            "grantRequire":"Y",
            "helpers":null
        },
        "exclusao":{
            "__class_name__":"Core\\System\\Submodule",
            "module":"artigo",
            "submodule":"exclusao",
            "description":"Exclus\u00e3o de P\u00e1gina",
            "action":"D",
            "status":"O",
            "showMenu":"N",
            "grantRequire":"Y",
            "helpers":null
        },
        "selecionar-editoria":{
            "__class_name__":"Core\\System\\Submodule",
            "module":"artigo",
            "submodule":"selecionar-editoria",
            "description":"Selecionar Editoria da nova P\u00e1gina",
            "action":"S",
            "status":"O",
            "showMenu":"Y",
            "grantRequire":"Y",
            "helpers":null
        },
        "visualizacao":{
            "__class_name__":"Core\\System\\Submodule",
            "module":"artigo",
            "submodule":"visualizacao",
            "description":"Visualiza\u00e7\u00e3o da P\u00e1gina",
            "action":"V",
            "status":"O",
            "showMenu":"N",
            "grantRequire":"Y",
            "helpers":null
        }
    },
    "helpers":null
}