{
    "__class_name__":"Core\\System\\Module",
    "filePath":"\/var\/www\/workspace\/HazoSalao\/modules\/usuario\/clientes.json",
    "status":"O",
    "mode":"U",
    "modeDescription":null,
    "description":"Clientes",
    "module":"clientes",
    "submodules":{
        "cadastro":{
            "__class_name__":"Core\\System\\Submodule",
            "module":"clientes",
            "submodule":"cadastro",
            "description":"Cadastro de Cliente",
            "action":"IUD",
            "status":"O",
            "showMenu":"Y",
            "grantRequire":"Y",
            "helpers":null
        },
        "visualizacao":{
            "__class_name__":"Core\\System\\Submodule",
            "module":"clientes",
            "submodule":"visualizacao",
            "description":"Visualiza\u00e7\u00e3o",
            "action":"V",
            "status":"O",
            "showMenu":"N",
            "grantRequire":"Y",
            "helpers":null
        },
        "index":{
            "__class_name__":"Core\\System\\Submodule",
            "module":"clientes",
            "submodule":"index",
            "description":"Clientes",
            "action":"S",
            "status":"O",
            "showMenu":"Y",
            "grantRequire":"Y",
            "helpers":null
        }
    },
    "helpers":"1aKqnuDz"
}