{
    "ClassName": "Model\\Singles\\MagicCard",
    "Table": "mtg_carta",
    "Label": "Magic Cards",
    "Column": {
        "ID": {
            "Attribute": "ID",
            "Name": "id",
            "Label": "C\u00f3d. Carta",
            "Null": 0,
            "Length": "10",
            "Type": "Integer",
            "Primary": 1,
            "Unique": 0,
            "AutoIncrement": 1,
            "Default": "",
            "Reference": {
                "Table": "",
                "Column": ""
            }
        },
        "name": {
            "Attribute": "name",
            "Name": "name",
            "Label": "Name",
            "Null": 0,
            "Length": "250",
            "Type": "String",
            "Primary": 0,
            "Unique": 1,
            "AutoIncrement": 0,
            "Default": "",
            "Reference": {
                "Table": "",
                "Column": ""
            }
        },
        "namePt": {
            "Attribute": "namePt",
            "Name": "name_pt",
            "Label": "name",
            "Null": 1,
            "Length": "250",
            "Type": "String",
            "Primary": 0,
            "Unique": 0,
            "AutoIncrement": 0,
            "Default": "",
            "Reference": {
                "Table": "",
                "Column": ""
            }
        },
        "indice": {
            "Attribute": "indice",
            "Name": "ind",
            "Label": "ind",
            "Null": 0,
            "Length": "10",
            "Type": "Integer",
            "Primary": 0,
            "Unique": 1,
            "AutoIncrement": 0,
            "Default": "",
            "Reference": {
                "Table": "",
                "Column": ""
            }
        },
        "cost": {
            "Attribute": "cost",
            "Name": "cost",
            "Label": "cost",
            "Null": 1,
            "Length": "45",
            "Type": "String",
            "Primary": 0,
            "Unique": 0,
            "AutoIncrement": 0,
            "Default": "",
            "Reference": {
                "Table": "",
                "Column": ""
            }
        },
        "pow": {
            "Attribute": "pow",
            "Name": "pow",
            "Label": "pow",
            "Null": 1,
            "Length": "45",
            "Type": "String",
            "Primary": 0,
            "Unique": 0,
            "AutoIncrement": 0,
            "Default": "",
            "Reference": {
                "Table": "",
                "Column": ""
            }
        },
        "tgh": {
            "Attribute": "tgh",
            "Name": "tgh",
            "Label": "tgh",
            "Null": 1,
            "Length": "45",
            "Type": "String",
            "Primary": 0,
            "Unique": 0,
            "AutoIncrement": 0,
            "Default": "",
            "Reference": {
                "Table": "",
                "Column": ""
            }
        },
        "imgUrl": {
            "Attribute": "imgUrl",
            "Name": "img_url",
            "Label": "img_url",
            "Null": 1,
            "Length": "250",
            "Type": "String",
            "Primary": 0,
            "Unique": 0,
            "AutoIncrement": 0,
            "Default": "",
            "Reference": {
                "Table": "",
                "Column": ""
            }
        },
        "imgName": {
            "Attribute": "imgName",
            "Name": "img_name",
            "Label": "imgName",
            "Null": 1,
            "Length": "250",
            "Type": "String",
            "Primary": 0,
            "Unique": 0,
            "AutoIncrement": 0,
            "Default": "",
            "Reference": {
                "Table": "",
                "Column": ""
            }
        },
        "imgExt": {
            "Attribute": "imgExt",
            "Name": "img_ext",
            "Label": "img_ext",
            "Null": 1,
            "Length": "45",
            "Type": "String",
            "Primary": 0,
            "Unique": 0,
            "AutoIncrement": 0,
            "Default": "",
            "Reference": {
                "Table": "",
                "Column": ""
            }
        },
        "imgContent": {
            "Attribute": "imgContent",
            "Name": "img_content",
            "Label": "img_content",
            "Null": 1,
            "Length": "",
            "Type": "BLOB",
            "Primary": 0,
            "Unique": 0,
            "AutoIncrement": 0,
            "Default": "",
            "Reference": {
                "Table": "",
                "Column": ""
            }
        },
        "type": {
            "Attribute": "type",
            "Name": "type",
            "Label": "type",
            "Null": 1,
            "Length": "",
            "Type": "CLOB",
            "Primary": 0,
            "Unique": 0,
            "AutoIncrement": 0,
            "Default": "",
            "Reference": {
                "Table": "",
                "Column": ""
            }
        },
        "typePt": {
            "Attribute": "typePt",
            "Name": "type_pt",
            "Label": "type_pt",
            "Null": 1,
            "Length": "",
            "Type": "CLOB",
            "Primary": 0,
            "Unique": 0,
            "AutoIncrement": 0,
            "Default": "",
            "Reference": {
                "Table": "",
                "Column": ""
            }
        },
        "descr": {
            "Attribute": "descr",
            "Name": "descr",
            "Label": "descr",
            "Null": 1,
            "Length": null,
            "Type": "CLOB",
            "Primary": 0,
            "Unique": 0,
            "AutoIncrement": 0,
            "Default": "",
            "Reference": {
                "Table": "",
                "Column": ""
            }
        },
        "descrPt": {
            "Attribute": "descrPt",
            "Name": "descr_pt",
            "Label": "descr_pt",
            "Null": 1,
            "Length": null,
            "Type": "CLOB",
            "Primary": 0,
            "Unique": 0,
            "AutoIncrement": 0,
            "Default": "",
            "Reference": {
                "Table": "",
                "Column": ""
            }
        },
        "serieImgUrl": {
            "Attribute": "serieImgUrl",
            "Name": "serie_img_url",
            "Label": "serie_img_url",
            "Null": 1,
            "Length": "250",
            "Type": "String",
            "Primary": 0,
            "Unique": 0,
            "AutoIncrement": 0,
            "Default": "",
            "Reference": {
                "Table": "",
                "Column": ""
            }
        },
        "serieImgName": {
            "Attribute": "serieImgName",
            "Name": "serie_img_name",
            "Label": "serie_img_name",
            "Null": 1,
            "Length": "250",
            "Type": "String",
            "Primary": 0,
            "Unique": 0,
            "AutoIncrement": 0,
            "Default": "",
            "Reference": {
                "Table": "",
                "Column": ""
            }
        },
        "serieImgExt": {
            "Attribute": "serieImgExt",
            "Name": "serie_img_ext",
            "Label": "serie_img_ext",
            "Null": 1,
            "Length": "45",
            "Type": "String",
            "Primary": 0,
            "Unique": 0,
            "AutoIncrement": 0,
            "Default": "",
            "Reference": {
                "Table": "",
                "Column": ""
            }
        },
        "serieImgContent": {
            "Attribute": "serieImgContent",
            "Name": "serie_img_content",
            "Label": "serie_img_content",
            "Null": 1,
            "Length": "",
            "Type": "BLOB",
            "Primary": 0,
            "Unique": 0,
            "AutoIncrement": 0,
            "Default": "",
            "Reference": {
                "Table": "",
                "Column": ""
            }
        },
        "serieTitle": {
            "Attribute": "serieTitle",
            "Name": "serie_title",
            "Label": "serieTitle",
            "Null": 1,
            "Length": "250",
            "Type": "String",
            "Primary": 0,
            "Unique": 0,
            "AutoIncrement": 0,
            "Default": "",
            "Reference": {
                "Table": "",
                "Column": ""
            }
        },
        "serieTitlePt": {
            "Attribute": "serieTitlePt",
            "Name": "serie_title_pt",
            "Label": "serieTitle",
            "Null": 1,
            "Length": "250",
            "Type": "String",
            "Primary": 0,
            "Unique": 0,
            "AutoIncrement": 0,
            "Default": "",
            "Reference": {
                "Table": "",
                "Column": ""
            }
        },
        "raridade": {
            "Attribute": "raridade",
            "Name": "raridade",
            "Label": "raridade",
            "Null": 1,
            "Length": "250",
            "Type": "String",
            "Primary": 0,
            "Unique": 0,
            "AutoIncrement": 0,
            "Default": "",
            "Reference": {
                "Table": "",
                "Column": ""
            }
        },
        "raridadePt": {
            "Attribute": "raridadePt",
            "Name": "raridade_pt",
            "Label": "raridade_pt",
            "Null": 1,
            "Length": "250",
            "Type": "String",
            "Primary": 0,
            "Unique": 0,
            "AutoIncrement": 0,
            "Default": "",
            "Reference": {
                "Table": "",
                "Column": ""
            }
        },
        "number": {
            "Attribute": "number",
            "Name": "number",
            "Label": "45",
            "Null": 1,
            "Length": "45",
            "Type": "String",
            "Primary": 0,
            "Unique": 0,
            "AutoIncrement": 0,
            "Default": "",
            "Reference": {
                "Table": "",
                "Column": ""
            }
        }
    }
}